0000.001 (0) Opened log file at time: Tue, 02 Jul 2019 09:47:37 +0000 on http://localhost/incomda-01
0000.005 (0) UpdraftPlus WordPress backup plugin (https://updraftplus.com): 1.16.14 WP: 5.2.1 PHP: 7.3.5 (apache2handler, Windows NT LAPTOP-DEV 10.0 build 17763 (Windows 10) AMD64) MySQL: 10.1.40-MariaDB WPLANG: en_US Server: Apache/2.4.39 (Win64) OpenSSL/1.1.1b PHP/7.3.5 safe_mode: 0 max_execution_time: 900 memory_limit: 256M (used: 41.1M | 6M) multisite: N openssl: OpenSSL 1.1.1b  26 Feb 2019 mcrypt: N LANG:  ZipArchive::addFile: Y
0000.007 (0) Free space on disk containing Updraft's temporary directory: 167723.3 MB
0000.011 (0) Tasks: Backup files: 0 (schedule: manual) Backup DB: 1 (schedule: manual)
0000.014 (0) Semaphore (d, nbfp_options) being initialised
0000.020 (0) Requesting semaphore lock (d) (apparently not via scheduler)
0000.027 (0) Set semaphore last lock (d) time to 2019-07-02 09:47:37
0000.029 (0) Semaphore lock (d) complete
0000.035 (0) Backup run: resumption=0, nonce=1653c851bcb9, file_nonce=1653c851bcb9 begun at=1562060857 (0s ago), job type=backup
0000.039 (0) Scheduling a resumption (1) after 300 seconds (1562061157) in case this run gets aborted
0000.051 (0) This backup run is not intended for files - skipping
0000.053 (0) Beginning creation of database dump (WordPress DB)
0000.068 (0) Table nbfp_options: Total expected rows (approximate): 230
0000.108 (0) Table nbfp_options: Total rows added: 230 in 0.04 seconds
0000.113 (0) Table nbfp_options: finishing file (backup_2019-07-02-0947_Incomda_Theme_01_1653c851bcb9-db-table-nbfp_options.table.gz - 182.4 KB)
0000.123 (0) Table nbfp_users: Total expected rows (approximate): 0
0000.129 (0) Table nbfp_users: Total rows added: 1 in 0.00 seconds
0000.132 (0) Table nbfp_users: finishing file (backup_2019-07-02-0947_Incomda_Theme_01_1653c851bcb9-db-table-nbfp_users.table.gz - 0.5 KB)
0000.141 (0) Table nbfp_usermeta: Total expected rows (approximate): 19
0000.148 (0) Table nbfp_usermeta: Total rows added: 19 in 0.00 seconds
0000.151 (0) Table nbfp_usermeta: finishing file (backup_2019-07-02-0947_Incomda_Theme_01_1653c851bcb9-db-table-nbfp_usermeta.table.gz - 1 KB)
0000.164 (0) Table nbfp_commentmeta: Total expected rows (approximate): 0
0000.173 (0) Table nbfp_commentmeta: Total rows added: 0 in 0.01 seconds
0000.176 (0) Table nbfp_commentmeta: finishing file (backup_2019-07-02-0947_Incomda_Theme_01_1653c851bcb9-db-table-nbfp_commentmeta.table.gz - 0.4 KB)
0000.188 (0) Table nbfp_comments: Total expected rows (approximate): 3
0000.198 (0) Table nbfp_comments: Total rows added: 3 in 0.01 seconds
0000.201 (0) Table nbfp_comments: finishing file (backup_2019-07-02-0947_Incomda_Theme_01_1653c851bcb9-db-table-nbfp_comments.table.gz - 0.8 KB)
0000.213 (0) Table nbfp_links: Total expected rows (approximate): 0
0000.222 (0) Table nbfp_links: Total rows added: 0 in 0.01 seconds
0000.225 (0) Table nbfp_links: finishing file (backup_2019-07-02-0947_Incomda_Theme_01_1653c851bcb9-db-table-nbfp_links.table.gz - 0.4 KB)
0000.237 (0) Table nbfp_postmeta: Total expected rows (approximate): 211
0000.302 (0) Table nbfp_postmeta: Total rows added: 220 in 0.06 seconds
0000.309 (0) Table nbfp_postmeta: finishing file (backup_2019-07-02-0947_Incomda_Theme_01_1653c851bcb9-db-table-nbfp_postmeta.table.gz - 67.9 KB)
0000.320 (0) Table nbfp_posts: Total expected rows (approximate): 43
0000.334 (0) Table nbfp_posts: Total rows added: 43 in 0.01 seconds
0000.338 (0) Table nbfp_posts: finishing file (backup_2019-07-02-0947_Incomda_Theme_01_1653c851bcb9-db-table-nbfp_posts.table.gz - 7.8 KB)
0000.348 (0) Table nbfp_term_relationships: Total expected rows (approximate): 12
0000.354 (0) Table nbfp_term_relationships: Total rows added: 12 in 0.00 seconds
0000.357 (0) Table nbfp_term_relationships: finishing file (backup_2019-07-02-0947_Incomda_Theme_01_1653c851bcb9-db-table-nbfp_term_relationships.table.gz - 0.4 KB)
0000.367 (0) Table nbfp_term_taxonomy: Total expected rows (approximate): 6
0000.373 (0) Table nbfp_term_taxonomy: Total rows added: 6 in 0.00 seconds
0000.376 (0) Table nbfp_term_taxonomy: finishing file (backup_2019-07-02-0947_Incomda_Theme_01_1653c851bcb9-db-table-nbfp_term_taxonomy.table.gz - 0.5 KB)
0000.385 (0) Table nbfp_termmeta: Total expected rows (approximate): 0
0000.391 (0) Table nbfp_termmeta: Total rows added: 1 in 0.00 seconds
0000.394 (0) Table nbfp_termmeta: finishing file (backup_2019-07-02-0947_Incomda_Theme_01_1653c851bcb9-db-table-nbfp_termmeta.table.gz - 0.4 KB)
0000.405 (0) Table nbfp_terms: Total expected rows (approximate): 6
0000.414 (0) Table nbfp_terms: Total rows added: 6 in 0.01 seconds
0000.418 (0) Table nbfp_terms: finishing file (backup_2019-07-02-0947_Incomda_Theme_01_1653c851bcb9-db-table-nbfp_terms.table.gz - 0.5 KB)
0000.429 (0) backup_2019-07-02-0947_Incomda_Theme_01_1653c851bcb9-db-table-nbfp_options.table.gz (1/12): adding to final database dump
0000.464 (0) backup_2019-07-02-0947_Incomda_Theme_01_1653c851bcb9-db-table-nbfp_users.table.gz (2/12): adding to final database dump
0000.468 (0) backup_2019-07-02-0947_Incomda_Theme_01_1653c851bcb9-db-table-nbfp_usermeta.table.gz (3/12): adding to final database dump
0000.472 (0) backup_2019-07-02-0947_Incomda_Theme_01_1653c851bcb9-db-table-nbfp_commentmeta.table.gz (4/12): adding to final database dump
0000.475 (0) backup_2019-07-02-0947_Incomda_Theme_01_1653c851bcb9-db-table-nbfp_comments.table.gz (5/12): adding to final database dump
0000.478 (0) backup_2019-07-02-0947_Incomda_Theme_01_1653c851bcb9-db-table-nbfp_links.table.gz (6/12): adding to final database dump
0000.481 (0) backup_2019-07-02-0947_Incomda_Theme_01_1653c851bcb9-db-table-nbfp_postmeta.table.gz (7/12): adding to final database dump
0000.500 (0) backup_2019-07-02-0947_Incomda_Theme_01_1653c851bcb9-db-table-nbfp_posts.table.gz (8/12): adding to final database dump
0000.505 (0) backup_2019-07-02-0947_Incomda_Theme_01_1653c851bcb9-db-table-nbfp_term_relationships.table.gz (9/12): adding to final database dump
0000.507 (0) backup_2019-07-02-0947_Incomda_Theme_01_1653c851bcb9-db-table-nbfp_term_taxonomy.table.gz (10/12): adding to final database dump
0000.510 (0) backup_2019-07-02-0947_Incomda_Theme_01_1653c851bcb9-db-table-nbfp_termmeta.table.gz (11/12): adding to final database dump
0000.512 (0) backup_2019-07-02-0947_Incomda_Theme_01_1653c851bcb9-db-table-nbfp_terms.table.gz (12/12): adding to final database dump
0000.519 (0) backup_2019-07-02-0947_Incomda_Theme_01_1653c851bcb9-db.gz: finished writing out complete database file (240 KB)
0000.534 (0) Total database tables backed up: 12 (backup_2019-07-02-0947_Incomda_Theme_01_1653c851bcb9-db.gz, size: 267256, sha256)
0000.543 (0) backup_2019-07-02-0947_Incomda_Theme_01_1653c851bcb9-db.gz: db: This file has not yet been successfully uploaded: will queue
0000.546 (0) Saving backup history. Total backup size: 261 KB
0000.552 (0) Requesting upload of the files that have not yet been successfully uploaded (1)
0000.557 (0) Cloud backup selection (1/1): none with instance (1/1) (last)
0000.559 (0) No remote despatch: user chose no remote backup service
0000.561 (0) Recording as successfully uploaded: backup_2019-07-02-0947_Incomda_Theme_01_1653c851bcb9-db.gz
0000.568 (0) Retain: beginning examination of existing backup sets; user setting: retain_files=2, retain_db=2
0000.570 (0) Number of backup sets in history: 1; groups (db): 1
0000.572 (0) Examining (for databases) backup set with group_id=0, nonce=1653c851bcb9, datestamp=1562060857 (Jul 02 2019 09:47:37)
0000.574 (0) This backup set is the backup set just made, so will not be deleted.
0000.574 (0) Number of backup sets in history: 1; groups (files): 1
0000.575 (0) Examining (for files) backup set with nonce=1653c851bcb9, datestamp=1562060857 (Jul 02 2019 09:47:37)
0000.575 (0) This backup set remains non-empty (f=0/d=1); will retain in history
0000.577 (0) Retain: saving new backup history (sets now: 1) and finishing retain operation
0000.581 (0) Resume backup (1653c851bcb9, 0): finish run
0000.588 (0) Decremented the semaphore (d) by 1
0000.590 (0) Semaphore (d) unlocked
0000.592 (0) There were no errors in the uploads, so the 'resume' event (1) is being unscheduled
0000.597 (0) No email will/can be sent - the user has not configured an email address.
0000.599 (0) The backup apparently succeeded and is now complete
